{
    "KPlugin": {
        "BugReportUrl": "https://bugs.kde.org/enter_bug.cgi?product=systemsettings&component=kcm_powerdevil",
        "Description": "Energy Saving",
        "Description[ar]": "حِفظ الطاقة",
        "Description[ast]": "Aforru d'enerxía",
        "Description[be]": "Захаванне энергіі",
        "Description[bg]": "Пестене на енергия",
        "Description[ca@valencia]": "Estalvi d'energia",
        "Description[ca]": "Estalvi d'energia",
        "Description[cs]": "Úsporný režim",
        "Description[de]": "Energiesparmodus",
        "Description[en_GB]": "Energy Saving",
        "Description[eo]": "Ŝparado de Energio",
        "Description[es]": "Ahorro de energía",
        "Description[eu]": "Energia aurreztea",
        "Description[fi]": "Virransäästö",
        "Description[fr]": "Économie d'énergie",
        "Description[gl]": "Aforro enerxético",
        "Description[ia]": "Sparnio de energia",
        "Description[it]": "Risparmio energetico",
        "Description[ka]": "ენერგიის შენახვა",
        "Description[ko]": "에너지 절약",
        "Description[lt]": "Energijos taupymas",
        "Description[nl]": "Energiebesparing",
        "Description[nn]": "Straum­sparing",
        "Description[pa]": "ਊਰਜਾ ਬੱਚਤ",
        "Description[pl]": "Oszczędzanie energii",
        "Description[pt]": "Poupança de Energia",
        "Description[pt_BR]": "Economia de energia",
        "Description[ru]": "Энергосбережение",
        "Description[sl]": "Varčevanje z energijo",
        "Description[sv]": "Strömsparhantering",
        "Description[ta]": "ஆற்றல் சேமிப்பு",
        "Description[tr]": "Güç Tasarrufu",
        "Description[uk]": "Заощадження енергії",
        "Description[x-test]": "xxEnergy Savingxx",
        "Description[zh_CN]": "节能",
        "Description[zh_TW]": "省電模式",
        "Icon": "preferences-system-power-management",
        "Name": "Energy Saving",
        "Name[ar]": "حِفظ الطاقة",
        "Name[ast]": "Aforru d'enerxía",
        "Name[az]": "Enerjiyə Qənaət",
        "Name[be]": "Захаванне энергіі",
        "Name[bg]": "Пестене на енергия",
        "Name[bs]": "Štednja energije",
        "Name[ca@valencia]": "Estalvi d'energia",
        "Name[ca]": "Estalvi d'energia",
        "Name[cs]": "Úsporný režim",
        "Name[da]": "Strømbesparelse",
        "Name[de]": "Energiesparmodus",
        "Name[el]": "Εξοικονόμηση ενέργειας",
        "Name[en_GB]": "Energy Saving",
        "Name[eo]": "Ŝparado de Energio",
        "Name[es]": "Ahorro de energía",
        "Name[et]": "Energia säästmine",
        "Name[eu]": "Energia-aurreztea",
        "Name[fi]": "Virransäästö",
        "Name[fr]": "Économie d'énergie",
        "Name[gl]": "Aforro enerxético",
        "Name[he]": "חסכון באנרגיה",
        "Name[hu]": "Energiatakarékosság",
        "Name[ia]": "Sparnio de energia",
        "Name[id]": "Hemat Energi",
        "Name[it]": "Risparmio energetico",
        "Name[ja]": "省エネルギー",
        "Name[ka]": "ენერგიის შენახვა",
        "Name[ko]": "에너지 절약",
        "Name[lt]": "Energijos taupymas",
        "Name[nb]": "Strømsparing",
        "Name[nds]": "Stroomsporen",
        "Name[nl]": "Energiebesparing",
        "Name[nn]": "Straum­sparing",
        "Name[pa]": "ਊਰਜਾ ਬੱਚਤ",
        "Name[pl]": "Oszczędzanie energii",
        "Name[pt]": "Poupança de Energia",
        "Name[pt_BR]": "Economia de energia",
        "Name[ro]": "Economisire energie",
        "Name[ru]": "Энергосбережение",
        "Name[sk]": "Šetrenie energie",
        "Name[sl]": "Varčevanje z energijo",
        "Name[sr@ijekavian]": "Штедња енергије",
        "Name[sr@ijekavianlatin]": "Štednja energije",
        "Name[sr@latin]": "Štednja energije",
        "Name[sr]": "Штедња енергије",
        "Name[sv]": "Strömsparhantering",
        "Name[ta]": "ஆற்றல் சேமிப்பு",
        "Name[tg]": "Сарфаи барқ",
        "Name[tr]": "Güç Tasarrufu",
        "Name[uk]": "Заощадження енергії",
        "Name[x-test]": "xxEnergy Savingxx",
        "Name[zh_CN]": "节能",
        "Name[zh_TW]": "省電模式"
    },
    "X-DocPath": "kcontrol/powerdevil/index.html",
    "X-KDE-Keywords": "system,power,power management,energy,laptop,battery,suspension,AC,suspend,suspending,hibernating,hibernate,brightness,performance,lid,power saving,charging,charge,discharge,discharging,dim screen,sleep,lock screen,lockscreen,turn screen off,turn off,power button,power buttons,low battery,plug,unplug",
    "X-KDE-Keywords[ar]": "نظام,النظام,طاقة,الطاقة,إدارة الطاقة,ادارة الطاقة, لابتوب,حاسوب محمول,محمول,سطوع,إضاءة,اضاءة,تعليق,علق,نم,نوم,أسبت,اسبت,اسبات,إسبات,أداء,اداء,الأداء,نشاط,جدث,أنشطة,أحداث,",
    "X-KDE-Keywords[az]": "system,power,power management,energy,laptop,battery,suspension,AC,suspend,suspending,hibernating,hibernate,brightness,performance,lid,power saving,charging,charge,discharge,discharging,dim screen,sleep,lock screen,lockscreen,turn screen off,turn off,power button,power buttons,low battery,plug,unplug,sistem,güc,güc idarəetməsi,enerji,dizüstü kompyuter,noutbuk,batareya,yuxulama,dəyişən cəryan şəbəkəsi,fasilə,parlaqlıq,işləmə gücü,enerjiyə qənaət,doldurma,boşalma,ekranın qaralması,yuxu rejimi,ekranın kilidlənməsi,ekranın söndürülməsi,güc düymələri,zəif batareya,qoşmaq,çıxarmaq",
    "X-KDE-Keywords[bg]": "енергия,захранване,лаптоп,монитор,хибернация,изключване,приспиване,яркост,натоварване,батерия,зареждане,заключване,дейности,работна среда,затъмняване,екран,разреждане,поведение,система",
    "X-KDE-Keywords[ca@valencia]": "sistema,energia,gestió d'energia,corrent,portàtil,bateria,suspensió,AC,suspendre,hibernació,hiberna,lluminositat,rendiment,tapa,estalvi d'energia,carregant,càrrega,descarregant,descarrega,enfosquiment de pantalla,adormir,bloqueig de pantalla,apagar la pantalla,apaga,botó d'encesa,botó d'apagat,bateria baixa,connecta,desconnecta",
    "X-KDE-Keywords[ca]": "sistema,energia,gestió d'energia,corrent,portàtil,bateria,suspensió,AC,suspendre,hibernació,hiberna,lluminositat,rendiment,tapa,estalvi d'energia,carregant,càrrega,descarregant,descarrega,enfosquiment de pantalla,adormir,bloqueig de pantalla,apagar la pantalla,apaga,botó d'encesa,botó d'apagat,bateria baixa,endolla,desendolla",
    "X-KDE-Keywords[de]": "Notebook,Akku,Ruhezustand,Laden,Ausschalten,Sperrbildschirm,Bildschirm",
    "X-KDE-Keywords[el]": "σύστημα,ισχύς,διαχείριση ισχύος,ενέργεια,φορητός,μπαταρία,αναστολή,AC,κοίμηση,κοίμηση,νάρκη,νάρκη,λαμπρότητα,επιδόσεις,καπάκι,εξοικονόμηση ισχύος,φόρτιση,φόρτιση,αποφόρτιση,αποφόρτιση,οθόνη με αμυδρό φως,ύπνωση,κλείδωμα οθόνης,κλείδωμα,σβήσιμο οθόνης,σβήσιμο,κουμπί εκκίνησης,κουμπιά εκκίνησης,χαμηλή στάθμη μπαταρίας,σύνδεση,αποσύνδεση",
    "X-KDE-Keywords[en_GB]": "system,power,power management,energy,laptop,battery,suspension,AC,suspend,suspending,hibernating,hibernate,brightness,performance,lid,power saving,charging,charge,discharge,discharging,dim screen,sleep,lock screen,lockscreen,turn screen off,turn off,power button,power buttons,low battery,plug,unplug",
    "X-KDE-Keywords[es]": "sistema,energía,gestión de energía,portátil,laptop,batería,suspensión,AC,CA,suspender,hibernación,hibernar,brillo,rendimiento,tapa,ahorro de energía,carga,cargar,descarga,descargar,oscurecer pantalla,dormir,bloquear pantalla,apagar pantalla,apagar,apagado,botón de encendido,botones de encendido,batería baja,enchufar,desenchufar",
    "X-KDE-Keywords[eu]": "sistema,indarra,energia kudeaketa,energia,magalekoa,bateria,esekitzea,AC,eseki,esekitzen,hibernatzen,hibernatu,distira,performantzia,lid,energia aurreztea,kargatzen,karga,deskarga,deskargatzen,pantaila moteltzea,lokartu,pantaila giltzatzea,pantaila itzaltzea,itzali,indar-botoia,indar-botoiak,bateria baxu,entxufatu,entxufea kendu",
    "X-KDE-Keywords[fi]": "järjestelmä,virta,virranhallinta,energia,kannettava,tietokone,akku,keskeytä,verkkovirta,lepotila,valmiustila,kirkkaus,suorituskyky,kansi,virransäästö,lataus,himmennys,lukitus,lukitusnäyttö,näytönsäästäjä,sammuta näyttö,sammuta,virtakytkin,virtakytkimet",
    "X-KDE-Keywords[fr]": "système, alimentation, gestion de l'énergie, énergie, portable, batterie, suspension, AC, suspendre, hiberner, hibernation, luminosité, performance, écran de portable, économie d'énergie, charge, chargement, réglage d'écran, veille, verrouillage d'écran, extinction d'écran, extinction, bouton de mise sous tension, boutons de mise sous tension, batterie faible, brancher, débrancher",
    "X-KDE-Keywords[hu]": "rendszer,táp,energiakezelés,energia,laptop,akkumulátor,felfüggesztés,AC,felfüggeszt,felfüggesztés,hibernálás,hibernálás,fényesség,teljesítmény,fedél,energiatakarékosság,töltés,tölt,merít,merítés,kijelző elsötétítése,alvás,képernyőzárolás,zárképernyő,kijelző kikapcsolása,kikapcsolás,bekapcsológomb,bekapcsológombok,alacsony töltöttség,csatlakoztat,kihúz",
    "X-KDE-Keywords[ia]": "systema,energia,gestion de energia,energia,laptop,batteria,suspension,AC,suspende,suspender,hibernar,hiberna,brillantia,comportamento,coperculo,sparnio de energia,cargante,carga,discarga,discargante,schermo obscur,somno,bloca schermo,bloco de schermo,extingue schermo,extingue,button de actionar,buttones de actionar,batteria basse,inserer,distacca",
    "X-KDE-Keywords[id]": "sistem,daya,pengelolaan daya,energi,laptop,notebook,baterai,suspensi,AC,suspensian,mengsuspensi,hibernasian,hibernasi,kecerahan,performa,lid,tutup,penghematan daya,mengisi,mengecas,isi,cas,discharge,discharging,layar redup,tidur,kunci layar,lockscreen,matikan layar,matikan,tombol daya,tombol-tombol daya,baterai lemah,colok,colokkan,pengcolokal,lepaskan colokan",
    "X-KDE-Keywords[it]": "sistema,energia,gestione energetica,energia,computer portatile,batteria,corrente alternata,sospensione,ibernazione,luminosità,prestazioni,coperchio,risparmio energetico,carica,scarica,oscura lo schermo,sospensione,schermata di blocco, schermata di blocco,spegni lo schermo,spegni,pulsante di accensione,pulsanti di accensione,batteria scarica,collega,scollegare",
    "X-KDE-Keywords[ko]": "system,power,power management,energy,laptop,battery,suspension,AC,suspend,suspending,hibernating,hibernate,brightness,performance,lid,power saving,charging,charge,discharge,discharging,dim screen,sleep,lock screen,lockscreen,turn screen off,turn off,power button,power buttons,low battery,plug,unplug,시스템,전원,전원 관리,에너지,노트북,배터리,어댑터,절전,대기 모드,대기,최대 절전,최대 절전 모드,밝기,성능,덮개,상판,활동,충전 제한,레벨,임계,충전,제한,화면 잠금,화면 끄기,전원 단추,전원 버튼,배터리 부족",
    "X-KDE-Keywords[nl]": "systeem,energie,energiebeheer,laptop,batterij,accu,onderbroken,AC,onderbreken,slapen,in slaap gaan,helderheid,prestaties,deksel,energiebesparing,wordt opgeladen,lading,wordt ontladen,scherm dimmen,slapen,scherm vergrendelen,scherm uitschakelen,uitschakelen,powerknop,powerknoppen,lage batterij,inpluggen,uitpluggen",
    "X-KDE-Keywords[nn]": "system,straum,straumstyring,energi,laptop,berbar,batteri,kvilemodus,AC,kvile,dvale,dvalemodus,lysstyrke,yting,lokk,batterisparing,nivå,kritisk,lade,lada,lading,utlade,utlada,utlading,demp skjerm,kvile,lås skjerm,låseskjerm,skjermlås,slå av skjerm,slå av,straumknapp,straumknappar,lågt batteri,kopla til,kopla frå,grense,ladegrense",
    "X-KDE-Keywords[pl]": "system,zasilanie,zarządzanie energią,energia,laptop,bateria,uśpienie,AC,uśpij,usypianie,hibernowanie,hibernuj,jasność,wydajność,pokrywa,oszczędzanie energii,ładowanie,ładunek,rozładowywanie,rozładowywanie,przyciemnianie ekranu,usypianie,ekran blokady,ekran blokady,wyłącz ekran,przycisk zasilania,przyciski zasilania,niska bateria,podłącz,odłącz",
    "X-KDE-Keywords[pt]": "sistema,energia,gestão de energia,portátil,bateria,suspensão,AC,suspender,hibernar,hibernação,brilho,performance,tampa,poupança de energia,carregar,carga,descarga,descarregar,escurecer o ecrã,ecrã de bloqueio,desligar o ecrã,desligar,botão de energia,botões de energia,bateria fraca,ligar,desligar",
    "X-KDE-Keywords[pt_BR]": "sistema,energia,gerenciamento de energia,energia,portátil,laptop,notebook,bateria,suspensão,suspendendo,hibernando,CA,AC,suspender,hibernar,brilho,desempenho,tampa,economia de energia,carregamento,carregando,descarregar,descarregando,escurecer tela,dormir,bloquear tela,tela de bloqueio,desligar tela,desligar,botão de ligar,botões de energia,bateria baixa,plugar,desplugar",
    "X-KDE-Keywords[ru]": "system,power,power management,energy,laptop,battery,suspension,AC,suspend,hibernate,brightness,performance,lid,levels,critical,charge,charging,limit,charge limit,charging limit,системное,питание,управление питанием,энергопотребление,ноутбук,батарея,спящий режим,гибернация,ждущий режим,яркость,производительность,крышка,ограничение зарядки",
    "X-KDE-Keywords[sk]": "systém,napájanie,správa napájania,energia,notebook,batéria,uspatie,AC,uspať, uspatie,hibernácia,hibernovať,jas,výkon,veko,úspora energie, nabíjanie,nabiť,vybiť,vybíjanie,stmavenie obrazovky,spánok,uzamknutie obrazovky, uzamknutie obrazovky,vypnutie obrazovky,vypnutie,tlačidlo napájania,tlačidlá napájania,slabá batéria, pripojiť, odpojiť",
    "X-KDE-Keywords[sl]": "sistem,energija,upravljanje z energijo,prenosnik,prenosni računalnik,baterija,akumulator,umirjanje,izmenični tok,pripravljenost,mirovanje,električno omrežje,svetlost,zmogljivost,pokrov,ohranjevanje baterije,zaklep zaslona,izklop zaslona,ugasnjevanja računalnika,gumb za zagon,gumbi za zagon,dejavnost,dejavnosti,napajanje,omejitev napajanja",
    "X-KDE-Keywords[sv]": "system,kraft,krafthantering,energi,bärbar dator,batteri,viloläge,AC,gå till viloläge,dvala,ljusstyrka,prestanda,lock,spara ström,ladda,urladda,dämpa skärm,viloläge,lås skärm,stäng av skärm,stäng av,strömknapp,strömknappar,svagt batteri,koppla in, koppla ur",
    "X-KDE-Keywords[ta]": "system,power,power management,energy,laptop,battery,suspension,AC,suspend,suspending,hibernating,hibernate,brightness,performance,lid,power saving,charging,charge,discharge,discharging,dim screen,sleep,lock screen,lockscreen,turn screen off,turn off,power button,power buttons,low battery,plug,unplug,கணினி, ஆற்றல், ஆற்றல் மேலாண்மை, ஆற்றல் நிர்வாகம், மடிக்கணினி, லாப்டாப், மின்கலம், பாட்டரி, தூக்கம், உறக்கம், இடைநிறுத்தம், மின், மின்சாரம், ஆழுறக்கம், ஹைபர்னேட், பிரகாசம், ஒளி, செயல்திறன், மூடி, ஆற்றல் சேமிப்பு, மின்னேற்றம், திரையை மங்கசெய், மங்கசெய், மங்கல், பூட்டு, திரையை பூட்டு, திரைபூட்டு, பூட்டுதிரை, திரையை அணை, அணை, முடக்கு, திரையை முடக்கு, பட்டன், கழற்று",
    "X-KDE-Keywords[tr]": "sistem,güç,güç yönetimi,enerji,dizüstü,pil,askıya alma,AC,askıya al,askıya alınıyor,hazırda bekletiliyor, hazırda beklet,parlaklık,başarım,kapak,güç tasarrufu,şarj oluyor,şarj,şarj boşalıyor,boşalıyor,ekranı karart, uyut,ekranı kilitle,ekranı kapat,kapat,güç düğmesi,güç düğmeleri,düşük pil,tak,çıkar",
    "X-KDE-Keywords[uk]": "system,power,power management,energy,laptop,battery,suspension,AC,suspend,suspending,hibernating,hibernate,brightness,performance,lid,power saving,charging,charge,discharge,discharging,dim screen,sleep,lock screen,lockscreen,turn screen off,turn off,power button,power buttons,low battery,plug,unplug,система,живлення,мережа,струм,керування,енергія,ноутбук,акумулятор,батарея,батареї,присипляння,призупинення,призупинка,яскравість,швидкодія,кришка,кришки,простір,дій,простори,активність,рівні,критичний,заряд,заряджання,межа,межа заряджання,обмеження,розряджання,розрядка,притлумлення,сон,блокування екрана,вимикання екрана,кнопка живлення,кнопки живлення,низький заряд,з'єднання,роз'єднання",
    "X-KDE-Keywords[x-test]": "xxsystemxx,xxpowerxx,xxpower managementxx,xxenergyxx,xxlaptopxx,xxbatteryxx,xxsuspensionxx,xxACxx,xxsuspendxx,xxsuspendingxx,xxhibernatingxx,xxhibernatexx,xxbrightnessxx,xxperformancexx,xxlidxx,xxpower savingxx,xxchargingxx,xxchargexx,xxdischargexx,xxdischargingxx,xxdim screenxx,xxsleepxx,xxlock screenxx,xxlockscreenxx,xxturn screen offxx,xxturn offxx,xxpower buttonxx,xxpower buttonsxx,xxlow batteryxx,xxplugxx,xxunplugxx",
    "X-KDE-Keywords[zh_CN]": "system,power,power management,energy,laptop,battery,suspension,AC,suspend,suspending,hibernating,hibernate,brightness,performance,lid,power saving,charging,charge,discharge,discharging,dim screen,sleep,lock screen,lockscreen,turn screen off,turn off,power button,power buttons,low battery,plug,unplug,activity,activities,workspaces,workspace,special behavior,系统,电源,电源管理,能源,笔记本,电池,挂起,交流电,休眠,亮度,性能,性能模式,盖子,省电,省电模式,充电,放电,屏幕变暗,睡眠,锁屏,关闭屏幕,关闭,电源按钮,低电量,插入,插头,插座,拔出",
    "X-KDE-System-Settings-Parent-Category": "power-management",
    "X-KDE-Weight": 3
}
